Pyspice/data_analysis/tek0015ALL.csv

Model,MSO3014
Firmware Version,2.40

Waveform Type,ANALOG,,,
Point Format,Y,,,
Horizontal Units,s,,,
Horizontal Scale,0.002,,,
Horizontal Delay,0.008,,,
Sample Interval,2e-08,,,
Record Length,1e+06,,,
Gating,0.0% to 100.0%,,,
Probe Attenuation,500,,,
Vertical Units,V,,,
Vertical Offset,2.8,,,
Vertical Scale,100,,,
Vertical Position,0,,,
,,,,
,,,,
,,,,
Label,,,,
TIME,CH1,CH2,CH3,CH4
-2.000000e-03,6.8,3.15,2.9,136
-1.999980e-03,2.8,3.05,2.8,136
-1.999960e-03,2.8,3.25,2.9,140
-1.999940e-03,6.8,3.05,3,140
-1.999920e-03,6.8,2.95,3,140
-1.999900e-03,6.8,3.05,2.9,140
-1.999880e-03,2.8,3.05,2.8,136
-1.999860e-03,2.8,3.05,2.9,132
-1.999840e-03,-1.2,2.95,3,136
-1.999820e-03,2.8,3.15,3,136
-1.999800e-03,6.8,3.15,2.8,144
-1.999780e-03,2.8,3.05,3,136
-1.999760e-03,6.8,3.15,3,144
-1.999740e-03,6.8,3.05,3,136
-1.999720e-03,2.8,3.25,2.9,136
-1.999700e-03,6.8,3.15,2.8,140
-1.999680e-03,-1.2,2.95,3,140
-1.999660e-03,2.8,2.95,2.9,136
-1.999640e-03,6.8,2.95,3,132
-1.999620e-03,2.8,3.05,3,140
-1.999600e-03,2.8,2.95,2.8,136
-1.999580e-03,6.8,3.15,2.9,136
-1.999560e-03,6.8,3.05,2.9,136
-1.999540e-03,2.8,3.05,2.9,140
-1.999520e-03,2.8,2.95,2.9,132
-1.999500e-03,2.8,3.15,2.8,132
-1.999480e-03,2.8,3.05,2.6,136
-1.999460e-03,-1.2,3.05,2.8,136
-1.999440e-03,-5.2,3.05,2.8,128
-1.999420e-03,2.8,3.05,2.8,136
-1.999400e-03,6.8,3.05,2.9,132
-1.999380e-03,-1.2,3.25,2.9,144
-1.999360e-03,2.8,2.85,2.9,136
-1.999340e-03,-1.2,3.05,2.8,136
-1.999320e-03,10.8,3.05,2.8,136
-1.999300e-03,2.8,3.05,2.9,132
-1.999280e-03,2.8,2.95,2.8,136
-1.999260e-03,2.8,3.25,2.8,144
-1.999240e-03,2.8,3.05,2.8,132
-1.999220e-03,6.8,3.05,2.8,136
-1.999200e-03,2.8,2.95,2.8,136
-1.999180e-03,2.8,3.05,2.8,140
-1.999160e-03,-1.2,3.05,2.9,136
-1.999140e-03,2.8,3.25,2.8,132
-1.999120e-03,2.8,2.85,2.9,136
-1.999100e-03,6.8,3.25,2.9,132
-1.999080e-03,6.8,3.05,2.8,132
-1.999060e-03,6.8,3.15,2.8,136
-1.999040e-03,6.8,2.95,2.8,144
-1.999020e-03,2.8,2.95,2.9,136
-1.999000e-03,2.8,3.05,2.7,136
-1.998980e-03,2.8,2.85,2.8,140
-1.998960e-03,-1.2,2.85,2.9,136
-1.998940e-03,2.8,3.15,2.7,136
-1.998920e-03,2.8,2.75,2.9,132
-1.998900e-03,2.8,2.95,3,128
-1.998880e-03,2.8,3.15,2.7,136
-1.998860e-03,2.8,2.95,2.8,132
-1.998840e-03,2.8,2.75,2.8,136
-1.998820e-03,6.8,3.15,2.8,136
-1.998800e-03,2.8,2.95,2.8,136
-1.998780e-03,6.8,3.05,2.7,132
-1.998760e-03,2.8,2.95,2.6,136
-1.998740e-03,6.8,2.95,2.8,132
-1.998720e-03,2.8,3.05,2.9,136
-1.998700e-03,2.8,2.85,3,140
-1.998680e-03,2.8,3.05,2.9,148
-1.998660e-03,2.8,2.85,2.7,128
-1.998640e-03,6.8,2.85,2.9,136
-1.998620e-03,2.8,2.95,2.8,140
-1.998600e-03,10.8,2.85,2.8,136
-1.998580e-03,2.8,2.95,2.7,140
-1.998560e-03,2.8,3.05,2.9,132
-1.998540e-03,10.8,2.85,2.8,128
-1.998520e-03,2.8,2.95,2.7,128
-1.998500e-03,2.8,3.05,2.7,136
-1.998480e-03,2.8,2.95,2.8,132
-1.998460e-03,2.8,3.15,2.7,136
-1.998440e-03,6.8,2.95,2.8,132
-1.998420e-03,2.8,3.05,2.7,140
-1.998400e-03,6.8,2.95,2.7,136
-1.998380e-03,2.8,2.95,2.7,132
-1.998360e-03,2.8,3.15,2.7,140
-1.998340e-03,2.8,3.05,2.8,136
-1.998320e-03,6.8,3.05,2.9,136
-1.998300e-03,2.8,2.95,2.7,140
-1.998280e-03,-1.2,3.05,2.7,140
-1.998260e-03,6.8,3.05,2.8,140
-1.998240e-03,6.8,2.85,2.7,140
-1.998220e-03,2.8,2.95,2.6,132
-1.998200e-03,2.8,2.95,2.8,140
-1.998180e-03,2.8,2.85,2.9,136
-1.998160e-03,2.8,3.05,2.8,144
-1.998140e-03,6.8,2.85,2.7,136
-1.998120e-03,2.8,3.05,2.7,144
-1.998100e-03,6.8,2.85,2.7,136
-1.998080e-03,2.8,2.85,2.8,140
-1.998060e-03,2.8,3.15,2.6,132
-1.998040e-03,2.8,2.95,2.7,132
-1.998020e-03,10.8,2.95,2.7,136
-1.998000e-03,2.8,2.85,2.7,140
-1.997980e-03,2.8,3.05,2.6,140
-1.997960e-03,6.8,2.85,2.7,140
-1.997940e-03,2.8,2.75,2.7,132
-1.997920e-03,6.8,2.75,2.7,132
-1.997900e-03,2.8,2.85,2.7,136
-1.997880e-03,6.8,2.85,2.8,140
-1.997860e-03,2.8,2.85,2.8,136
-1.997840e-03,2.8,2.75,2.8,136
-1.997820e-03,2.8,2.95,2.8,140
-1.997800e-03,2.8,2.85,2.7,136
-1.997780e-03,2.8,2.75,2.8,140
-1.997760e-03,2.8,2.75,2.7,136
-1.997740e-03,2.8,2.85,2.7,140
-1.997720e-03,2.8,2.75,2.7,140
-1.997700e-03,2.8,2.85,2.7,132
-1.997680e-03,2.8,2.85,2.6,136
-1.997660e-03,2.8,2.95,2.7,136
-1.997640e-03,2.8,2.95,2.7,136
-1.997620e-03,2.8,2.85,2.8,136
-1.997600e-03,2.8,3.05,2.7,136
-1.997580e-03,-1.2,3.05,2.8,132
-1.997560e-03,2.8,2.65,2.7,132
-1.997540e-03,2.8,3.05,2.8,140
-1.997520e-03,10.8,2.95,2.8,140
-1.997500e-03,2.8,2.65,2.7,144
-1.997480e-03,2.8,2.95,2.7,132
-1.997460e-03,-1.2,2.95,2.8,140
-1.997440e-03,6.8,2.95,2.6,132
-1.997420e-03,-1.2,2.75,2.6,144
-1.997400e-03,2.8,2.85,2.7,136
-1.997380e-03,2.8,2.75,2.7,136
-1.997360e-03,2.8,2.85,2.7,132
-1.997340e-03,2.8,2.75,2.7,140
-1.997320e-03,2.8,2.95,2.5,128
-1.997300e-03,6.8,2.65,2.7,132
-1.997280e-03,6.8,2.65,2.7,132
-1.997260e-03,2.8,2.75,2.6,136
-1.997240e-03,-1.2,2.85,2.4,132
-1.997220e-03,2.8,2.95,2.7,144
-1.997200e-03,6.8,2.95,2.8,132
-1.997180e-03,2.8,2.75,2.7,136
-1.997160e-03,2.8,2.85,2.7,144
-1.997140e-03,2.8,2.65,2.6,136
-1.997120e-03,2.8,2.95,2.6,140
-1.997100e-03,2.8,2.85,2.7,132
-1.997080e-03,6.8,2.65,2.7,140
-1.997060e-03,6.8,2.85,2.6,140
-1.997040e-03,2.8,2.85,2.7,136
-1.997020e-03,2.8,2.85,2.7,140
-1.997000e-03,2.8,2.95,2.7,140
-1.996980e-03,2.8,2.85,2.7,132
-1.996960e-03,2.8,2.85,2.6,140
-1.996940e-03,2.8,2.85,2.7,132
-1.996920e-03,2.8,3.05,2.6,140
-1.996900e-03,2.8,2.85,2.7,136
-1.996880e-03,-1.2,2.75,2.7,136
-1.996860e-03,2.8,2.85,2.7,136
-1.996840e-03,6.8,2.85,2.7,136
-1.996820e-03,2.8,2.75,2.6,140
-1.996800e-03,6.8,2.85,2.6,136
-1.996780e-03,-1.2,2.65,2.7,132
-1.996760e-03,6.8,2.65,2.7,136
-1.996740e-03,6.8,2.85,2.6,136
-1.996720e-03,2.8,2.85,2.4,132
-1.996700e-03,10.8,2.95,2.7,136
-1.996680e-03,2.8,2.65,2.8,140
-1.996660e-03,2.8,2.95,2.6,144
-1.996640e-03,6.8,2.75,2.7,140
-1.996620e-03,2.8,2.95,2.5,132
-1.996600e-03,6.8,2.85,2.6,128
-1.996580e-03,6.8,2.85,2.6,128
-1.996560e-03,6.8,2.75,2.7,140
-1.996540e-03,2.8,2.75,2.6,140
-1.996520e-03,-1.2,2.75,2.6,136
-1.996500e-03,2.8,2.95,2.7,140
-1.996480e-03,6.8,2.85,2.7,136
-1.996460e-03,2.8,2.75,2.6,136
-1.996440e-03,2.8,2.75,2.7,136
-1.996420e-03,6.8,2.75,2.7,128
-1.996400e-03,2.8,2.75,2.7,132
-1.996380e-03,2.8,2.65,2.6,144
-1.996360e-03,6.8,2.85,2.5,136
-1.996340e-03,2.8,2.65,2.6,140
-1.996320e-03,2.8,2.65,2.6,136
-1.996300e-03,2.8,2.65,2.7,140
-1.996280e-03,-1.2,2.75,2.6,136
-1.996260e-03,6.8,2.85,2.7,136
-1.996240e-03,2.8,2.75,2.6,132
-1.996220e-03,2.8,2.65,2.6,136
-1.996200e-03,2.8,2.85,2.7,136
-1.996180e-03,2.8,2.75,2.6,136
-1.996160e-03,2.8,2.85,2.7,140
-1.996140e-03,10.8,2.65,2.5,136
-1.996120e-03,2.8,2.75,2.5,140
-1.996100e-03,2.8,2.75,2.6,136
-1.996080e-03,10.8,2.85,2.7,132
-1.996060e-03,2.8,2.65,2.7,140
-1.996040e-03,2.8,2.75,2.6,132
-1.996020e-03,2.8,2.85,2.7,140
-1.996000e-03,6.8,2.65,2.6,144
-1.995980e-03,6.8,2.65,2.6,136
-1.995960e-03,2.8,2.75,2.7,140
-1.995940e-03,10.8,2.95,2.5,136
-1.995920e-03,10.8,2.85,2.6,132
-1.995900e-03,2.8,2.75,2.7,136
-1.995880e-03,2.8,2.65,2.6,136
-1.995860e-03,2.8,2.75,2.7,132
-1.995840e-03,-1.2,2.55,2.7,136
-1.995820e-03,6.8,2.75,2.6,136
-1.995800e-03,10.8,2.95,2.7,144
-1.995780e-03,2.8,2.45,2.7,132
-1.995760e-03,2.8,2.65,2.7,136
-1.995740e-03,2.8,2.75,2.8,128
-1.995720e-03,-1.2,2.75,2.7,132
-1.995700e-03,2.8,2.75,2.5,132
-1.995680e-03,6.8,2.95,2.7,136
-1.995660e-03,6.8,2.75,2.7,136
-1.995640e-03,6.8,2.75,2.6,132
-1.995620e-03,2.8,2.65,2.5,136
-1.995600e-03,2.8,2.85,2.7,140
-1.995580e-03,6.8,2.85,2.7,140
-1.995560e-03,2.8,2.75,2.6,140
-1.995540e-03,2.8,2.65,2.6,136
-1.995520e-03,-1.2,2.65,2.7,132
-1.995500e-03,6.8,2.85,2.7,132
-1.995480e-03,2.8,2.65,2.7,140
-1.995460e-03,2.8,2.75,2.6,144
-1.995440e-03,2.8,2.55,2.4,128
-1.995420e-03,2.8,2.65,2.7,128
-1.995400e-03,2.8,2.75,2.6,136
-1.995380e-03,6.8,2.65,2.5,140
-1.995360e-03,2.8,2.65,2.7,136
-1.995340e-03,2.8,2.75,2.6,136
-1.995320e-03,2.8,2.65,2.6,132
-1.995300e-03,6.8,2.85,2.8,140
-1.995280e-03,6.8,2.75,2.7,140
-1.995260e-03,6.8,2.55,2.6,132
-1.995240e-03,2.8,2.65,2.6,132
-1.995220e-03,2.8,2.65,2.7,136
-1.995200e-03,2.8,2.45,2.6,132
-1.995180e-03,2.8,2.65,2.5,132
-1.995160e-03,-1.2,2.75,2.7,132
-1.995140e-03,2.8,2.65,2.5,140
-1.995120e-03,6.8,2.65,2.6,140
-1.995100e-03,2.8,2.65,2.7,124
-1.995080e-03,-1.2,2.65,2.8,140
-1.995060e-03,-1.2,2.75,2.6,132
-1.995040e-03,6.8,2.65,2.7,132
-1.995020e-03,2.8,2.85,2.7,144
-1.995000e-03,6.8,2.45,2.4,140
-1.994980e-03,2.8,2.55,2.6,140
-1.994960e-03,2.8,2.65,2.6,136
-1.994940e-03,-1.2,2.55,2.6,144
-1.994920e-03,2.8,2.85,2.7,144
-1.994900e-03,6.8,2.65,2.7,140
-1.994880e-03,2.8,2.65,2.6,136
-1.994860e-03,2.8,2.75,2.4,132
-1.994840e-03,2.8,2.55,2.6,140
-1.994820e-03,6.8,2.75,2.5,140
-1.994800e-03,2.8,2.65,2.7,144
-1.994780e-03,6.8,2.35,2.5,144
-1.994760e-03,2.8,2.65,2.7,136
-1.994740e-03,2.8,2.65,2.7,140
-1.994720e-03,6.8,2.75,2.7,132
-1.994700e-03,-1.2,2.65,2.7,132
-1.994680e-03,6.8,2.75,2.6,144
-1.994660e-03,2.8,2.65,2.8,136
-1.994640e-03,2.8,2.75,2.7,140
-1.994620e-03,10.8,2.75,2.7,140
-1.994600e-03,2.8,2.75,2.7,140
-1.994580e-03,6.8,2.65,2.5,140
-1.994560e-03,-1.2,2.55,2.5,132
-1.994540e-03,2.8,2.75,2.5,132
-1.994520e-03,6.8,2.55,2.6,128
-1.994500e-03,2.8,2.55,2.5,140
-1.994480e-03,10.8,2.65,2.4,140
-1.994460e-03,10.8,2.45,2.7,136
-1.994440e-03,2.8,2.55,2.6,136
-1.994420e-03,2.8,2.75,2.7,136
-1.994400e-03,2.8,2.55,2.6,136
-1.994380e-03,-1.2,2.65,2.6,136
-1.994360e-03,2.8,2.75,2.6,136
-1.994340e-03,-1.2,2.75,2.6,136
-1.994320e-03,2.8,2.65,2.6,132
-1.994300e-03,2.8,2.55,2.5,140
-1.994280e-03,2.8,2.55,2.7,136
-1.994260e-03,10.8,2.75,2.7,136
-1.994240e-03,2.8,2.85,2.7,132
-1.994220e-03,2.8,2.75,2.7,140
-1.994200e-03,2.8,2.65,2.7,136
-1.994180e-03,2.8,2.65,2.7,140
-1.994160e-03,2.8,2.55,2.5,136
-1.994140e-03,2.8,2.65,2.5,136
-1.994120e-03,2.8,2.65,2.7,136
-1.994100e-03,2.8,2.75,2.6,144
-1.994080e-03,2.8,2.75,2.6,140
-1.994060e-03,2.8,2.95,2.7,136
-1.994040e-03,2.8,2.55,2.7,136
-1.994020e-03,6.8,2.75,2.7,132
-1.994000e-03,2.8,2.85,2.6,140
-1.993980e-03,2.8,2.65,2.6,132
-1.993960e-03,2.8,2.65,2.5,132
-1.993940e-03,2.8,2.65,2.6,136
-1.993920e-03,2.8,2.55,2.8,140
-1.993900e-03,2.8,2.55,2.6,144
-1.993880e-03,2.8,2.55,2.6,136
-1.993860e-03,6.8,2.55,2.7,140
-1.993840e-03,-1.2,2.75,2.6,136
-1.993820e-03,2.8,2.65,2.5,140
-1.993800e-03,6.8,2.65,2.6,136
-1.993780e-03,2.8,2.75,2.7,136
-1.993760e-03,2.8,2.65,2.5,136
-1.993740e-03,6.8,2.75,2.7,136
-1.993720e-03,2.8,2.65,2.7,140
-1.993700e-03,6.8,2.55,2.6,140
-1.993680e-03,2.8,2.45,2.7,136
-1.993660e-03,-1.2,2.55,2.6,140
-1.993640e-03,6.8,2.65,2.7,132
-1.993620e-03,2.8,2.55,2.7,132
-1.993600e-03,2.8,2.65,2.6,132
-1.993580e-03,6.8,2.45,2.5,140
-1.993560e-03,2.8,2.75,2.6,132
-1.993540e-03,2.8,2.75,2.7,132
-1.993520e-03,2.8,2.75,2.6,140
-1.993500e-03,6.8,2.75,2.7,136
-1.993480e-03,2.8,2.65,2.6,136
-1.993460e-03,6.8,2.75,2.6,132
-1.993440e-03,-1.2,2.65,2.7,132
-1.993420e-03,6.8,2.55,2.6,140
-1.993400e-03,2.8,2.65,2.6,128
-1.993380e-03,10.8,2.65,2.7,136
-1.993360e-03,6.8,2.65,2.7,140
-1.993340e-03,2.8,2.55,2.6,136
-1.993320e-03,6.8,2.55,2.6,136
-1.993300e-03,6.8,2.55,2.7,140
-1.993280e-03,6.8,2.45,2.5,140
-1.993260e-03,2.8,2.65,2.8,136
-1.993240e-03,6.8,2.55,2.7,144
-1.993220e-03,2.8,2.65,2.7,136
-1.993200e-03,-1.2,2.75,2.6,132
-1.993180e-03,10.8,2.55,2.5,140
-1.993160e-03,6.8,2.65,2.7,132
-1.993140e-03,-1.2,2.65,2.7,140
-1.993120e-03,-1.2,2.45,2.7,140
-1.993100e-03,2.8,2.65,2.8,132
-1.993080e-03,2.8,2.65,2.7,132
-1.993060e-03,6.8,2.45,2.7,136
-1.993040e-03,2.8,2.65,2.7,136
-1.993020e-03,2.8,2.75,2.7,132
-1.993000e-03,2.8,2.55,2.7,132
-1.992980e-03,2.8,2.55,2.9,140
-1.992960e-03,2.8,2.45,2.7,132
-1.992940e-03,-1.2,2.65,2.8,140
-1.992920e-03,2.8,2.65,2.7,140
-1.992900e-03,2.8,2.65,2.8,140
-1.992880e-03,2.8,2.55,2.7,140
-1.992860e-03,2.8,2.55,2.6,144
-1.992840e-03,2.8,2.65,2.7,140
-1.992820e-03,6.8,2.55,2.6,132
-1.992800e-03,2.8,2.65,2.6,140
-1.992780e-03,2.8,2.55,2.7,140
-1.992760e-03,2.8,2.55,2.6,140
-1.992740e-03,2.8,2.55,2.7,144
-1.992720e-03,2.8,2.55,2.6,140
-1.992700e-03,2.8,2.55,2.6,136
-1.992680e-03,6.8,2.65,2.8,144
-1.992660e-03,2.8,2.45,2.7,136
-1.992640e-03,2.8,2.45,2.7,132
-1.992620e-03,2.8,2.65,2.7,136
-1.992600e-03,2.8,2.45,2.7,136
-1.992580e-03,2.8,2.45,2.7,140
-1.992560e-03,6.8,2.55,2.7,140
-1.992540e-03,6.8,2.55,2.7,136
-1.992520e-03,6.8,2.45,2.7,140
-1.992500e-03,6.8,2.35,2.8,136
-1.992480e-03,6.8,2.65,2.7,132
-1.992460e-03,6.8,2.55,2.6,140
-1.992440e-03,2.8,2.65,2.7,144
-1.992420e-03,10.8,2.65,2.6,140
-1.992400e-03,-1.2,2.55,2.7,132
-1.992380e-03,2.8,2.65,2.7,132
-1.992360e-03,2.8,2.45,2.7,140
-1.992340e-03,2.8,2.45,2.8,140
-1.992320e-03,2.8,2.45,2.7,136
-1.992300e-03,2.8,2.55,2.8,140
-1.992280e-03,6.8,2.35,2.7,140
-1.992260e-03,2.8,2.45,2.7,136
-1.992240e-03,2.8,2.65,2.7,136
-1.992220e-03,2.8,2.35,2.7,136
-1.992200e-03,2.8,2.45,2.6,136
-1.992180e-03,2.8,2.55,2.7,132
-1.992160e-03,2.8,2.45,2.7,136
-1.992140e-03,2.8,2.45,2.7,132
-1.992120e-03,-1.2,2.35,2.7,136
-1.992100e-03,6.8,2.55,2.7,140
-1.992080e-03,10.8,2.55,2.7,140
-1.992060e-03,2.8,2.35,2.8,140
-1.992040e-03,2.8,2.55,2.7,132
-1.992020e-03,2.8,2.55,2.8,136
-1.992000e-03,2.8,2.45,2.7,136
-1.991980e-03,6.8,2.65,2.9,132
-1.991960e-03,6.8,2.35,2.7,132
-1.991940e-03,2.8,2.55,2.8,136
-1.991920e-03,2.8,2.65,2.7,132
-1.991900e-03,2.8,2.45,2.8,136
-1.991880e-03,10.8,2.55,2.7,148
-1.991860e-03,2.8,2.45,2.8,140
-1.991840e-03,6.8,2.35,2.8,132
-1.991820e-03,6.8,2.55,2.8,140
-1.991800e-03,6.8,2.45,2.9,144
-1.991780e-03,-1.2,2.45,2.9,136
-1.991760e-03,2.8,2.45,2.8,136
-1.991740e-03,6.8,2.45,2.6,140
-1.991720e-03,2.8,2.35,2.8,136
-1.991700e-03,2.8,2.45,2.8,136
-1.991680e-03,2.8,2.35,2.7,136
-1.991660e-03,2.8,2.35,2.6,140
-1.991640e-03,2.8,2.55,2.8,128
-1.991620e-03,6.8,2.45,2.8,132
-1.991600e-03,2.8,2.45,2.8,144
-1.991580e-03,6.8,2.35,2.9,140
-1.991560e-03,2.8,2.55,2.7,132
-1.991540e-03,2.8,2.35,2.9,144
-1.991520e-03,2.8,2.35,2.9,140
-1.991500e-03,6.8,2.35,2.7,132
-1.991480e-03,6.8,2.35,2.8,140
-1.991460e-03,2.8,2.75,2.8,140
-1.991440e-03,2.8,2.55,2.8,136
-1.991420e-03,-1.2,2.55,2.8,136
-1.991400e-03,-1.2,2.45,2.7,136
-1.991380e-03,6.8,2.45,2.9,136
-1.991360e-03,-1.2,2.55,2.8,132
-1.991340e-03,-1.2,2.35,2.8,136
-1.991320e-03,2.8,2.65,2.8,140
-1.991300e-03,2.8,2.35,2.7,136
-1.991280e-03,2.8,2.35,2.8,140
-1.991260e-03,2.8,2.65,2.8,132
-1.991240e-03,2.8,2.35,2.7,132
-1.991220e-03,6.8,2.35,2.8,136
-1.991200e-03,6.8,2.45,2.9,132
-1.991180e-03,6.8,2.55,2.8,132
-1.991160e-03,2.8,2.35,2.8,140
-1.991140e-03,6.8,2.65,2.7,136
-1.991120e-03,6.8,2.45,2.8,144
-1.991100e-03,2.8,2.35,2.8,140
-1.991080e-03,6.8,2.35,3,132
-1.991060e-03,-1.2,2.65,2.9,128
-1.991040e-03,2.8,2.45,2.8,132
-1.991020e-03,6.8,2.45,2.9,148
-1.991000e-03,2.8,2.15,2.8,140
-1.990980e-03,2.8,2.45,2.7,136
-1.990960e-03,6.8,2.45,2.8,132
-1.990940e-03,6.8,2.35,2.8,132
-1.990920e-03,2.8,2.45,2.8,140
-1.990900e-03,2.8,2.35,2.7,136
-1.990880e-03,2.8,2.25,2.8,144
-1.990860e-03,2.8,2.35,2.8,140
-1.990840e-03,2.8,2.45,2.7,136
-1.990820e-03,6.8,2.25,2.8,136
-1.990800e-03,2.8,2.35,2.8,144
-1.990780e-03,2.8,2.45,2.8,136
-1.990760e-03,2.8,2.55,2.8,136
-1.990740e-03,2.8,2.55,2.8,132
-1.990720e-03,-1.2,2.35,2.9,136
-1.990700e-03,2.8,2.35,2.8,140
-1.990680e-03,2.8,2.25,2.9,132
-1.990660e-03,10.8,2.45,2.8,132
-1.990640e-03,2.8,2.45,2.9,136
-1.990620e-03,2.8,2.65,2.8,140
-1.990600e-03,6.8,2.35,2.9,136
-1.990580e-03,2.8,2.35,3,132
-1.990560e-03,2.8,2.35,2.9,136
-1.990540e-03,6.8,2.15,2.8,136
-1.990520e-03,2.8,2.15,2.9,140
-1.990500e-03,6.8,2.35,2.8,140
-1.990480e-03,-1.2,2.35,2.8,132
-1.990460e-03,2.8,2.45,2.9,140
-1.990440e-03,-5.2,2.35,2.8,136
-1.990420e-03,2.8,2.25,2.9,136
-1.990400e-03,-1.2,2.15,2.8,136
-1.990380e-03,6.8,2.35,2.8,140
-1.990360e-03,2.8,2.25,2.9,136
-1.990340e-03,2.8,2.25,2.9,132
-1.990320e-03,6.8,2.35,2.8,144
-1.990300e-03,10.8,2.25,2.8,132
-1.990280e-03,2.8,2.35,2.8,140
-1.990260e-03,10.8,2.15,2.8,140
-1.990240e-03,2.8,2.35,2.8,132
-1.990220e-03,-1.2,2.15,2.9,140
-1.990200e-03,6.8,2.45,2.9,136
-1.990180e-03,2.8,2.55,2.9,140
-1.990160e-03,14.8,2.35,2.8,144
-1.990140e-03,2.8,2.15,2.9,136
-1.990120e-03,10.8,2.15,2.9,140
-1.990100e-03,10.8,2.45,2.8,144
-1.990080e-03,2.8,2.35,2.9,140
-1.990060e-03,6.8,2.25,2.9,144
-1.990040e-03,-1.2,2.35,2.9,144
-1.990020e-03,2.8,2.45,2.9,140
-1.990000e-03,2.8,2.65,2.9,144
-1.989980e-03,-1.2,2.25,2.9,140
-1.989960e-03,-1.2,2.45,2.7,140
-1.989940e-03,6.8,2.45,2.8,148
-1.989920e-03,2.8,2.45,2.9,136
-1.989900e-03,2.8,2.35,2.8,144
-1.989880e-03,6.8,2.35,2.8,144
-1.989860e-03,2.8,2.25,3,144
-1.989840e-03,10.8,2.55,2.9,144
-1.989820e-03,-1.2,2.45,3.1,136
-1.989800e-03,2.8,2.35,2.9,144
-1.989780e-03,6.8,2.45,2.8,140
-1.989760e-03,6.8,2.55,3,144
-1.989740e-03,6.8,2.45,2.8,136
-1.989720e-03,2.8,2.15,2.9,140
-1.989700e-03,14.8,2.15,3,132
-1.989680e-03,6.8,2.25,2.8,144
-1.989660e-03,2.8,2.35,3,148
-1.989640e-03,-1.2,2.15,3.1,136
-1.989620e-03,2.8,2.15,2.9,140
-1.989600e-03,2.8,2.05,3,140
-1.989580e-03,6.8,2.25,3,140
-1.989560e-03,2.8,2.15,2.9,144
-1.989540e-03,6.8,2.35,2.8,148
-1.989520e-03,2.8,2.15,2.9,144
-1.989500e-03,2.8,2.35,2.9,140
-1.989480e-03,6.8,2.35,2.9,140
-1.989460e-03,2.8,2.35,3.2,140
-1.989440e-03,2.8,2.45,2.9,136
-1.989420e-03,2.8,2.35,2.8,144
-1.989400e-03,2.8,2.35,2.9,140
-1.989380e-03,2.8,2.45,2.8,144
-1.989360e-03,2.8,2.45,2.9,140
-1.989340e-03,2.8,2.25,3,144
-1.989320e-03,2.8,2.35,3,140
-1.989300e-03,2.8,2.35,3,140
-1.989280e-03,-1.2,2.25,3,140
-1.989260e-03,10.8,2.25,2.9,132
-1.989240e-03,-1.2,2.25,3,136
-1.989220e-03,-1.2,2.15,3,144
-1.989200e-03,6.8,2.25,3.1,140
-1.989180e-03,14.8,2.35,3,136
-1.989160e-03,2.8,2.45,2.8,136
-1.989140e-03,2.8,2.35,2.8,144
-1.989120e-03,2.8,2.35,2.8,144
-1.989100e-03,2.8,2.15,2.9,132
-1.989080e-03,2.8,2.45,3,140
-1.989060e-03,-1.2,2.65,3,132
-1.989040e-03,2.8,2.45,2.9,136
-1.989020e-03,2.8,2.35,2.9,140
-1.989000e-03,2.8,2.35,2.9,140
-1.988980e-03,6.8,2.25,3,140
-1.988960e-03,-1.2,2.35,3.1,144
-1.988940e-03,6.8,2.35,2.8,140
-1.988920e-03,6.8,2.35,3,136
-1.988900e-03,2.8,2.35,2.8,140
-1.988880e-03,2.8,2.55,2.9,136
-1.988860e-03,6.8,2.35,3.1,136
-1.988840e-03,2.8,2.55,3,144
-1.988820e-03,2.8,2.05,3.1,136
-1.988800e-03,2.8,2.45,2.9,132
-1.988780e-03,2.8,2.15,3,140
-1.988760e-03,2.8,2.35,3.1,136
-1.988740e-03,-1.2,2.15,3,144
-1.988720e-03,2.8,2.65,3.2,140
-1.988700e-03,6.8,2.35,3,144
-1.988680e-03,2.8,2.35,3.1,144
-1.988660e-03,10.8,2.35,3,132
-1.988640e-03,6.8,2.45,3,132
-1.988620e-03,10.8,2.45,3.1,144
-1.988600e-03,2.8,2.55,3,140
-1.988580e-03,2.8,2.35,3.1,136
-1.988560e-03,10.8,2.35,3.1,140
-1.988540e-03,2.8,2.45,3.1,140
-1.988520e-03,-1.2,2.65,3.2,140
-1.988500e-03,2.8,2.35,3.1,136
-1.988480e-03,6.8,2.25,3.2,140
-1.988460e-03,6.8,2.25,3.2,136
-1.988440e-03,2.8,2.45,3.2,144
-1.988420e-03,2.8,2.45,3.1,140
-1.988400e-03,2.8,2.15,3.2,136
-1.988380e-03,6.8,2.35,3.1,140
-1.988360e-03,10.8,2.25,2.9,144
-1.988340e-03,-1.2,2.35,3.3,136
-1.988320e-03,6.8,2.45,3,136
-1.988300e-03,10.8,2.35,3.1,148
-1.988280e-03,10.8,2.35,3.1,140
-1.988260e-03,2.8,2.35,3.1,140
-1.988240e-03,-1.2,2.45,3.1,140
-1.988220e-03,6.8,2.35,3.2,140
-1.988200e-03,6.8,2.45,3.1,140
-1.988180e-03,6.8,2.45,3.3,148
-1.988160e-03,-1.2,2.35,3.1,140
-1.988140e-03,2.8,2.55,3.1,140
-1.988120e-03,2.8,2.55,3.2,136
-1.988100e-03,10.8,2.65,3.1,144
-1.988080e-03,-1.2,2.55,3.2,144
-1.988060e-03,2.8,2.35,3.4,136
-1.988040e-03,6.8,2.25,3.1,148
-1.988020e-03,-1.2,2.55,3.1,144
-1.988000e-03,2.8,2.65,3.1,148
-1.987980e-03,2.8,2.45,3.3,144
-1.987960e-03,6.8,2.45,3.1,148
-1.987940e-03,2.8,2.55,3.1,148
-1.987920e-03,2.8,2.45,3,144
-1.987900e-03,2.8,2.45,3.2,148
-1.987880e-03,10.8,2.45,3.2,144
-1.987860e-03,2.8,2.35,3.2,144
-1.987840e-03,2.8,2.55,3,148
-1.987820e-03,2.8,2.35,3.1,144
-1.987800e-03,2.8,2.35,3.2,144
-1.987780e-03,2.8,2.25,3.2,144
-1.987760e-03,2.8,2.15,3.2,148
-1.987740e-03,2.8,2.45,3,144
-1.987720e-03,2.8,2.55,3.3,144
-1.987700e-03,2.8,2.45,3.3,144
-1.987680e-03,2.8,2.45,3.2,148
-1.987660e-03,2.8,2.35,3.2,148
-1.987640e-03,2.8,2.45,3.3,140
-1.987620e-03,6.8,2.55,3.1,144
-1.987600e-03,6.8,2.35,3.2,144
-1.987580e-03,6.8,2.35,3.2,140
-1.987560e-03,2.8,2.35,3.4,152
-1.987540e-03,6.8,2.45,3.3,156
-1.987520e-03,2.8,2.55,3.3,148
-1.987500e-03,2.8,2.45,3.4,140
-1.987480e-03,2.8,2.65,3.2,144
-1.987460e-03,6.8,2.45,3.1,144
-1.987440e-03,2.8,2.55,3.3,144
-1.987420e-03,6.8,2.25,3.2,140
-1.987400e-03,2.8,2.35,3.1,144
-1.987380e-03,6.8,2.45,3.2,140
